…
> 
> 
> 
> nn_recipe <- recipe(type ~., data=trainCsv) %>%
+   update_role(id, new_role="id") %>%
+   step_mutate(color = as.factor(color)) %>%
+   step_dummy(all_nominal_predictors()) %>%  #make dummy variables
+   step_normalize(all_numeric_predictors()) %>% ## Turn color to factor then dummy encode color
+   step_range(all_numeric_predictors(), min=0, max=1) #scale to [0,1]
> 
> 
> prep <- prep(nn_recipe)
> baked <- bake(prep, new_data = NULL)
> baked
# A tibble: 371 × 11
      id bone_length rotting_flesh hair_length has_soul type   color_blood
   <dbl>       <dbl>         <dbl>       <dbl>    <dbl> <fct>        <dbl>
 1     0       0.388         0.305      0.383     0.833 Ghoul            0
 2     1       0.681         0.395      0.459     0.465 Goblin           0
 3     2       0.538         0.309      0.782     0.844 Ghoul            0
 4     4       0.947         0.494      0.580     0.945 Ghoul            0
 5     5       0.668         0.932      0.328     0.677 Ghost            0
 6     7       0.456         0.188      0.355     0.292 Goblin           0
 7     8       0.448         0.566      0.559     0.495 Goblin           0
 8    11       0.602         0.527      0.553     0.495 Ghoul            0
 9    12       0.335         0.688      0.327     0.235 Ghost            0
10    19       0.291         0.724      0.0520    0.142 Ghost            0
# ℹ 361 more rows
# ℹ 4 more variables: color_blue <dbl>, color_clear <dbl>, color_green <dbl>,
#   color_white <dbl>
…
